-----BEGIN PGP PUBLIC KEY BLOCK-----
Version: GnuPG v1.0.6 (GNU/Linux)
Comment: For info see http://www.gnupg.org
Comment: A revocation certificate should follow

iEkEIBECAAkFAjwln3ICHQEACgkQnMdd2wBYu4zw0wCfbFCyj16MsTKqylcsvLbO
I5+jj3wAnRilLQN7Vz7/2Ujkkd34OtwhSuZW
=fJeR
-----END PGP PUBLIC KEY BLOCK-----
